[{
        "id": 1,
        "studentId": "SE-001",
        "name": "Prayuth",
        "surname": "The minister",
        "gpa": 3.59,
        "image": "assets/images/tu.jpg",
        "featured": false,
        "penAmount": 15,
        "description": "The great man ever!!!!"
    },
    {
        "id": 2,
        "studentId": "SE-002",
        "name": "Jurgen",
        "surname": "Kloop",
        "gpa": 2.15,
        "image": "assets/images/kloop.jpg",
        "featured": true,
        "penAmount": 2,
        "description": "The man for the Kop"
    },
    {
        "id": 3,
        "studentId": "SE-003",
        "name": "Ae+",
        "surname": "Parena",
        "gpa": 2.15,
        "image": "assets/images/pareena.jpg",
        "featured": true,
        "penAmount": 0,
        "description": "The most beloved one"
    }
    ,  {
        "id": 4,
        "studentId": "SE-007",
        "name": "Yibei",
        "surname": "Bai",
        "gpa": 3.64,
        "image": "assets/images/bb.jpg",
        "featured": true,
        "penAmount": 3,
        "description": "The most cutee one"
    }
]